Modeling Practice
…
Luckily there appears to be no missing data! Next, let’s check the column types to make sure the values within the columns make sense.

bike_data

# A tibble: 8,760 × 14
   Date       `Rented Bike Count`  Hour `Temperature(°C)` `Humidity(%)`
   <chr>                    <dbl> <dbl>             <dbl>         <dbl>
 1 01/12/2017                 254     0              -5.2            37
 2 01/12/2017                 204     1              -5.5            38
 3 01/12/2017                 173     2              -6              39
 4 01/12/2017                 107     3              -6.2            40
 5 01/12/2017                  78     4              -6              36
 6 01/12/2017                 100     5              -6.4            37
 7 01/12/2017                 181     6              -6.6            35
 8 01/12/2017                 460     7              -7.4            38
 9 01/12/2017                 930     8              -7.6            37
10 01/12/2017                 490     9              -6.5            27
# ℹ 8,750 more rows
# ℹ 9 more variables: `Wind speed (m/s)` <dbl>, `Visibility (10m)` <dbl>,
#   `Dew point temperature(°C)` <dbl>, `Solar Radiation (MJ/m2)` <dbl>,
#   `Rainfall(mm)` <dbl>, `Snowfall (cm)` <dbl>, Seasons <chr>, Holiday <chr>,
#   `Functioning Day` <chr>
…
    date, intersect, setdiff, union

bike_data <- bike_data |>
  mutate(Hour = as.character(Hour),
         Date = mdy(Date))

Warning: There was 1 warning in `mutate()`.
ℹ In argument: `Date = mdy(Date)`.
Caused by warning:
!  5304 failed to parse.

bike_data

# A tibble: 8,760 × 14
   Date       `Rented Bike Count` Hour  `Temperature(°C)` `Humidity(%)`
   <date>                   <dbl> <chr>             <dbl>         <dbl>
 1 2017-01-12                 254 0                  -5.2            37
 2 2017-01-12                 204 1                  -5.5            38
 3 2017-01-12                 173 2                  -6              39
 4 2017-01-12                 107 3                  -6.2            40
 5 2017-01-12                  78 4                  -6              36
 6 2017-01-12                 100 5                  -6.4            37
 7 2017-01-12                 181 6                  -6.6            35
 8 2017-01-12                 460 7                  -7.4            38
 9 2017-01-12                 930 8                  -7.6            37
10 2017-01-12                 490 9                  -6.5            27
# ℹ 8,750 more rows
# ℹ 9 more variables: `Wind speed (m/s)` <dbl>, `Visibility (10m)` <dbl>,
#   `Dew point temperature(°C)` <dbl>, `Solar Radiation (MJ/m2)` <dbl>,
#   `Rainfall(mm)` <dbl>, `Snowfall (cm)` <dbl>, Seasons <chr>, Holiday <chr>,
#   `Functioning Day` <chr>

It also seems like it would be a good idea to coerce the data in Seasons, Holiday, and Functioning Day to be factors since they only take on a few distinct, non-numeric values.

bike_data <- bike_data |>
  mutate(Seasons = as.factor(Seasons),
         Holiday = as.factor(Holiday),
         `Functioning Day` = as.factor(`Functioning Day`))
bike_data

# A tibble: 8,760 × 14
   Date       `Rented Bike Count` Hour  `Temperature(°C)` `Humidity(%)`
   <date>                   <dbl> <chr>             <dbl>         <dbl>
 1 2017-01-12                 254 0                  -5.2            37
 2 2017-01-12                 204 1                  -5.5            38
 3 2017-01-12                 173 2                  -6              39
 4 2017-01-12                 107 3                  -6.2            40
 5 2017-01-12                  78 4                  -6              36
 6 2017-01-12                 100 5                  -6.4            37
 7 2017-01-12                 181 6                  -6.6            35
 8 2017-01-12                 460 7                  -7.4            38
 9 2017-01-12                 930 8                  -7.6            37
10 2017-01-12                 490 9                  -6.5            27
# ℹ 8,750 more rows
# ℹ 9 more variables: `Wind speed (m/s)` <dbl>, `Visibility (10m)` <dbl>,
#   `Dew point temperature(°C)` <dbl>, `Solar Radiation (MJ/m2)` <dbl>,
#   `Rainfall(mm)` <dbl>, `Snowfall (cm)` <dbl>, Seasons <fct>, Holiday <fct>,
#   `Functioning Day` <fct>
Lastly, let’s rename the variables in lower snake case.

bike_data <- bike_data |>
  rename("date" = "Date", "rented_bike_count" = "Rented Bike Count", "hour"
         = "Hour", "temperature" = "Temperature(°C)", "humidity" = 
         "Humidity(%)", "wind_speed" = "Wind speed (m/s)", "visibility" =
         "Visibility (10m)", "dew_point_temperature" = 
           "Dew point temperature(°C)", "solar_radiation" = 
           "Solar Radiation (MJ/m2)",
         "rainfall" = "Rainfall(mm)", "snowfall" = "Snowfall (cm)", 
         "seasons" = "Seasons", "holiday" = "Holiday", "functioning_day" = 
         "Functioning Day")
bike_data

# A tibble: 8,760 × 14
   date       rented_bike_count hour  temperature humidity wind_speed visibility
   <date>                 <dbl> <chr>       <dbl>    <dbl>      <dbl>      <dbl>
 1 2017-01-12               254 0            -5.2       37        2.2       2000
 2 2017-01-12               204 1            -5.5       38        0.8       2000
 3 2017-01-12               173 2            -6         39        1         2000
 4 2017-01-12               107 3            -6.2       40        0.9       2000
 5 2017-01-12                78 4            -6         36        2.3       2000
 6 2017-01-12               100 5            -6.4       37        1.5       2000
 7 2017-01-12               181 6            -6.6       35        1.3       2000
 8 2017-01-12               460 7            -7.4       38        0.9       2000
 9 2017-01-12               930 8            -7.6       37        1.1       2000
10 2017-01-12               490 9            -6.5       27        0.5       1928
# ℹ 8,750 more rows
# ℹ 7 more variables: dew_point_temperature <dbl>, solar_radiation <dbl>,
#   rainfall <dbl>, snowfall <dbl>, seasons <fct>, holiday <fct>,
#   functioning_day <fct>
…
